 		       _   _    _ __   __
 	  	      /_\ | |  | |\ \ / /
 		     / _ \| |__| |_\ V / 
	            /_/ \_\____|____|_|  
                      
              __...--~~~~~-._   _.-~~~~~--...__
             //               `V'               \\ 
            //                 |                 \\ 
           //__...--~~~~~~-._  |  _.-~~~~~~--...__\\ 
          //__.....----~~~~._\ | /_.~~~~----.....__\\
         ====================\\|//====================
                             `---`                                                 
                             
  .-----------------------------------------------------------------.
 /  .-.                                                         .-.  \
|  /   \   "Be careful who you complain to; there are a lot    /   \  |
| |\_.  |   of allies who are unwilling/unable to do ally     |    /| |
|\|  | /|   work when it applies to their own behavior."      |\  | |/|
| `---' |                                                     | `---' |
|       |-----------------------------------------------------|       |
 \     /                                                       \     /
  `---'                                                         `---'

