::::::::::::::::::::::::::::::::::::::::::::::::::::::::::::::::::::
::  Hi     Hello     Good evening     Hey     What's up?     Sup? ::
::                                                                ::
::                                                                ::
::    How's it going?     What's good?     Yo     What r u up to? ::
::                                                                ::
::                                                                ::
::  Hiya      What's happening?     Salutations     Y'ello        ::
::                                                                ::
::                                                                ::
::    Greetings     How's by you?     Wazzup?     How r u?        ::
::                                                                ::
::                                                                ::
::  G'day     Morning     Heya     What's cooking?     Howdy      ::
::                                                                ::
::::::::::::::::::::::::::::::::::::::::::::::::::::::::::::::::::::
