                                                               .---.
                                                              /  .  \
                                                             |\_/|   |
                                                             |   |  /|
  .----------------------------------------------------------------' |
 /  .-.                                                              |
|  /   \                                                             |
| |\_.  |                                                            |
|\|  | /|      "It is not men against us, it is our culture."        |
| `---' |                                                            |
|       |                                                            | 
|       |                                                           /
|       |----------------------------------------------------------'
\       |
 \     /
  `---'

